<define-tag pagetitle>DLA-2548-1 privoxy</define-tag>
<define-tag report_date>2021-02-07</define-tag>
<define-tag secrefs>CVE-2020-35502 CVE-2021-20209 CVE-2021-20210 CVE-2021-20211 CVE-2021-20212 CVE-2021-20213 CVE-2021-20215 CVE-2021-20216 CVE-2021-20217</define-tag>
<define-tag packages>privoxy</define-tag>
<define-tag isvulnerable>yes</define-tag>
<define-tag fixed>yes</define-tag>
<define-tag fixed-section>no</define-tag>

#use wml::debian::security

