<define-tag pagetitle>DLA-1224-1 mercurial</define-tag>
<define-tag report_date>2017-12-28</define-tag>
<define-tag secrefs>CVE-2017-17458</define-tag>
<define-tag packages>mercurial</define-tag>
<define-tag isvulnerable>yes</define-tag>
<define-tag fixed>yes</define-tag>
<define-tag fixed-section>no</define-tag>

#use wml::debian::security

