<define-tag pagetitle>DLA-904-1 uzbek-wordlist</define-tag>
<define-tag report_date>2017-4-20</define-tag>
<define-tag packages>uzbek-wordlist</define-tag>
<define-tag isvulnerable>yes</define-tag>
<define-tag fixed>yes</define-tag>
<define-tag fixed-section>no</define-tag>

#use wml::debian::security

