<define-tag pagetitle>DLA-2206-1 thunderbird</define-tag>
<define-tag report_date>2020-05-09</define-tag>
<define-tag secrefs>CVE-2020-6831 CVE-2020-12387 CVE-2020-12392 CVE-2020-12395 CVE-2020-12397</define-tag>
<define-tag packages>thunderbird</define-tag>
<define-tag isvulnerable>yes</define-tag>
<define-tag fixed>yes</define-tag>
<define-tag fixed-section>no</define-tag>

#use wml::debian::security

