<define-tag pagetitle>DLA-2407-1 tomcat8</define-tag>
<define-tag report_date>2020-10-14</define-tag>
<define-tag secrefs>CVE-2020-13943</define-tag>
<define-tag packages>tomcat8</define-tag>
<define-tag isvulnerable>yes</define-tag>
<define-tag fixed>yes</define-tag>
<define-tag fixed-section>no</define-tag>

#use wml::debian::security
