<define-tag pagetitle>DLA-2232-1 python-httplib2</define-tag>
<define-tag report_date>2020-06-01</define-tag>
<define-tag secrefs>CVE-2020-11078</define-tag>
<define-tag packages>python-httplib2</define-tag>
<define-tag isvulnerable>yes</define-tag>
<define-tag fixed>yes</define-tag>
<define-tag fixed-section>no</define-tag>

#use wml::debian::security

