<define-tag pagetitle>DLA-2087-1 suricata</define-tag>
<define-tag report_date>2020-01-31</define-tag>
<define-tag secrefs>CVE-2019-18625 CVE-2019-18792</define-tag>
<define-tag packages>suricata</define-tag>
<define-tag isvulnerable>yes</define-tag>
<define-tag fixed>yes</define-tag>
<define-tag fixed-section>no</define-tag>

#use wml::debian::security

