<define-tag pagetitle>DLA-1253-1 openocd</define-tag>
<define-tag report_date>2018-1-21</define-tag>
<define-tag secrefs>CVE-2018-5704 Bug#887488</define-tag>
<define-tag packages>openocd</define-tag>
<define-tag isvulnerable>yes</define-tag>
<define-tag fixed>yes</define-tag>
<define-tag fixed-section>no</define-tag>

#use wml::debian::security

