<define-tag pagetitle>DSA-4447-1 intel-microcode</define-tag>
<define-tag report_date>2019-5-15</define-tag>
<define-tag secrefs>CVE-2018-12126 CVE-2018-12127 CVE-2018-12130 CVE-2019-11091</define-tag>
<define-tag packages>intel-microcode</define-tag>
<define-tag isvulnerable>yes</define-tag>
<define-tag fixed>yes</define-tag>
<define-tag fixed-section>no</define-tag>

#use wml::debian::security



</dl>
