<define-tag pagetitle>DSA-4507-1 squid</define-tag>
<define-tag report_date>2019-8-24</define-tag>
<define-tag secrefs>CVE-2019-12525 CVE-2019-12527 CVE-2019-12529 CVE-2019-12854 CVE-2019-13345 Bug#931478</define-tag>
<define-tag packages>squid</define-tag>
<define-tag isvulnerable>yes</define-tag>
<define-tag fixed>yes</define-tag>
<define-tag fixed-section>no</define-tag>

#use wml::debian::security



</dl>
