<define-tag pagetitle>DLA-648-1 c-ares</define-tag>
<define-tag report_date>2016-10-6</define-tag>
<define-tag secrefs>CVE-2016-5180 Bug#839151</define-tag>
<define-tag packages>c-ares</define-tag>
<define-tag isvulnerable>yes</define-tag>
<define-tag fixed>yes</define-tag>
<define-tag fixed-section>no</define-tag>

#use wml::debian::security

